<svg width="169" height="155" viewBox="0 0 169 155" fill="none" xmlns="http://www.w3.org/2000/svg">
<path d="M77.1669 154.333C34.6201 154.333 0 119.714 0 77.1669C0 34.6201 34.6201 0 77.1669 0C91.9619 0 106.356 4.21576 118.794 12.199C121.236 13.7712 121.951 17.0262 120.379 19.4744C118.802 21.9227 115.553 22.6305 113.105 21.0595C102.372 14.163 89.9414 10.5227 77.1669 10.5227C40.4209 10.5227 10.5227 40.4209 10.5227 77.1669C10.5227 113.912 40.4209 143.81 77.1669 143.81C113.912 143.81 143.81 113.912 143.81 77.1669C143.81 74.9704 143.705 72.7957 143.502 70.657C143.222 67.7592 145.34 65.1914 148.23 64.9114C151.134 64.6442 153.694 66.7495 153.975 69.6397C154.213 72.1162 154.333 74.6274 154.333 77.1669C154.333 119.714 119.714 154.333 77.1669 154.333V154.333Z" fill="#25CED1"/>
<path d="M85.935 94.7043C84.5888 94.7043 83.2414 94.1918 82.2176 93.1616L50.6495 61.5935C48.5943 59.537 48.5943 56.205 50.6495 54.1498C52.7047 52.0946 56.0367 52.0946 58.092 54.1498L85.9427 82.0005L159.383 8.55868C161.44 6.50347 164.772 6.50347 166.827 8.55868C168.882 10.6139 168.882 13.9459 166.827 16.0011L89.6601 93.168C88.6286 94.1918 87.2824 94.7043 85.935 94.7043V94.7043Z" fill="#25CED1"/>
</svg>
