<svg width="19" height="32" viewBox="0 0 19 32" fill="none" xmlns="http://www.w3.org/2000/svg">
<path d="M6.31728 16.0068L18.2884 4.03512C18.618 3.70628 18.7994 3.2666 18.7994 2.79779C18.7994 2.32872 18.618 1.8893 18.2884 1.55993L17.2394 0.51148C16.9103 0.181593 16.4704 0 16.0016 0C15.5328 0 15.0933 0.181593 14.764 0.51148L0.510446 14.7647C0.179779 15.0952 -0.00129384 15.5367 6.9701e-06 16.006C-0.00129384 16.4774 0.179519 16.9184 0.510446 17.249L14.7507 31.4885C15.0801 31.8184 15.5195 32 15.9886 32C16.4574 32 16.8968 31.8184 17.2264 31.4885L18.2751 30.4401C18.9575 29.7577 18.9575 28.6468 18.2751 27.9646L6.31728 16.0068Z" fill="white"/>
</svg>
