<svg width="31" height="32" viewBox="0 0 31 32" fill="none" xmlns="http://www.w3.org/2000/svg">
<path d="M18.3173 16.0068L30.2884 4.03512C30.618 3.70628 30.7993 3.2666 30.7993 2.79779C30.7993 2.32872 30.618 1.8893 30.2884 1.55993L29.2394 0.51148C28.9103 0.181593 28.4704 0 28.0016 0C27.5327 0 27.0933 0.181593 26.764 0.51148L12.5104 14.7647C12.1798 15.0952 11.9987 15.5366 12 16.006C11.9987 16.4774 12.1795 16.9184 12.5104 17.249L26.7507 31.4885C27.0801 31.8184 27.5195 32 27.9885 32C28.4574 32 28.8968 31.8184 29.2264 31.4885L30.2751 30.4401C30.9575 29.7577 30.9575 28.6468 30.2751 27.9646L18.3173 16.0068Z" fill="white"/>
<path d="M12.4821 16.0068L0.510958 4.03512C0.181332 3.70628 0 3.2666 0 2.79779C0 2.32872 0.181332 1.8893 0.510958 1.55993L1.55993 0.51148C1.88904 0.181593 2.32897 0 2.79779 0C3.2666 0 3.70601 0.181593 4.03538 0.51148L18.2889 14.7647C18.6196 15.0952 18.8006 15.5366 18.7993 16.006C18.8006 16.4774 18.6198 16.9184 18.2889 17.249L4.04865 31.4885C3.71928 31.8184 3.27987 32 2.8108 32C2.34198 32 1.90257 31.8184 1.57294 31.4885L0.524227 30.4401C-0.158179 29.7577 -0.158179 28.6468 0.524227 27.9646L12.4821 16.0068Z" fill="white"/>
</svg>
