<svg width="19" height="32" viewBox="0 0 19 32" fill="none" xmlns="http://www.w3.org/2000/svg">
<path d="M12.4821 16.0068L0.51095 4.03512C0.181324 3.70628 -7.62939e-06 3.2666 -7.62939e-06 2.79779C-7.62939e-06 2.32872 0.181324 1.8893 0.51095 1.55993L1.55993 0.51148C1.88903 0.181593 2.32897 0 2.79778 0C3.26659 0 3.70601 0.181593 4.03537 0.51148L18.2889 14.7647C18.6196 15.0952 18.8006 15.5367 18.7993 16.006C18.8006 16.4774 18.6198 16.9184 18.2889 17.249L4.04864 31.4885C3.71928 31.8184 3.27986 32 2.81079 32C2.34198 32 1.90256 31.8184 1.57293 31.4885L0.52422 30.4401C-0.158187 29.7577 -0.158187 28.6468 0.52422 27.9646L12.4821 16.0068Z" fill="#202226"/>
</svg>
